0,LIFE
1,nurseri
2,mdba
3,profici
4,Conida
5,divers
6,AGE
7,child
8,cpr-
9,Geoscienc
10,ENVIRONMENT
11,catch
12,AEROSOL
13,ocean-
14,MESODINIUM
15,acaena
16,frenatu
17,agriculturemanag
18,Capit
19,Microbiolog
20,vandal
21,BUOY
22,stationeri
23,art-galleri
24,VIRU
25,Calanoid
26,Obes
27,Casey
28,contou
29,bike
30,Western
31,Asbesto
32,lord
33,DEVIC
34,HILL
35,state-school
36,digit
37,watercours
38,affair
39,risk
40,chlorophyl
41,GP
42,aurora
43,internet
44,Dine
45,pigment
46,CURRENT
47,Australi
48,Elig
49,microbi
50,rescuu
51,GA
52,govern
53,farmperform
54,Bivalv
55,Industri
56,holothuroidea
57,PRIMARi
58,GI
59,BOUNDARIES-Administr
60,MAP
61,school
62,Artesian
63,ceriop
64,DEVIAT
65,Excret
66,VERNER
67,NEAR
68,Moor
69,FLOE
70,Ga
71,mamoreu
72,SURVIV
73,barbecu
74,pesticid
75,apertur
76,Sigalionida
77,Mortal
78,speci
79,geomorpholog
80,dimens
81,direct
82,histor
83,OBIS/AADC
84,Bistat
85,holtermann
86,Invertebr
87,CARBON
88,rtbg
89,HYDROGEN
90,gps-
91,schistidium
92,satellite-imageri
93,settlement
94,Thermosalinograph
95,parkland
96,foreshor
97,mekongensi
98,tolt
99,migrat
100,Game
101,CAMERA
102,fjord
103,Minor
104,conduct
105,supplier
106,new
107,net
108,emergencymanag
109,striatu
110,topolog
111,metadata
112,COUNT
113,laevigata
114,Photograph
115,Venom
116,Flavonoid
117,CTDTMP
118,aquat
119,LANDSAT
120,Zonat
121,Histor
122,Structur
123,argu
124,Terebellida
125,GAUG
126,Actinopyga
127,china
128,EXOT
129,path
130,multifidu
131,saz
132,enrol
133,interpret
134,NOM
135,cryptophyt
136,digitalenterpris
137,militari
138,BOUNDARI
139,tenement
140,Hous
141,selago
142,saveenergi
143,credit
144,Imageri
145,WAYPOINT
146,Tabl
147,Owner
148,studi
149,LOCAT
150,corner-shop
151,golden
152,FLUORESC
153,Group
154,Threaten
155,campaign
156,newspap
157,hookeri
158,ebraeu
159,cirratulida
160,CTD
161,BIOLOG
162,topographi
163,Health
164,gaseou
165,nitrat
166,Basin
167,total
168,leucospilota
169,unit
170,landfil
171,Star
172,rattu
173,Flowmet
174,Dentistri
175,enterprisegeelong
176,temperature-
177,biophysicalboundari
178,lividu
179,echinoderms-
180,TERRA
181,Closur
182,Prasinoxanthin
183,TAG
184,music
185,asset
186,landcov
187,Corangamit
188,irrigationproduct
189,Carbon
190,Qld
191,expiat
192,type
193,POLLUT
194,ventricosa
195,snowden
196,equip
197,QUATERNARi
198,purpureu
199,Rule
200,IAGP
201,warn
202,Inform
203,holm
204,socialissu
205,highway
206,adult
207,Breeder
208,ward
209,oomycoti
210,WANDER
211,origin
212,TIMBER
213,accid
214,flora
215,BIOSPHER
216,EDG
217,Popular
218,accidentstatist
219,work
220,worm
221,Comanthu
222,permite
223,LARSEMANN
224,Acaena
225,DENSITi
226,Protozoa
227,AMINO
228,meida
229,Le
230,auhor
231,climat
232,RE-SIGHT
233,amphipod
234,household
235,MASSIF
236,india
237,indic
238,ONe
239,impair
240,filtrat
241,Azorella
242,Echunga
243,PERSIST
244,EMPEROR
245,Day
246,CVD
247,humanresourc
248,morula
249,nitrog
250,LIPID
251,identif
252,polic
253,Journal
254,SQUID
255,fulmar
256,Nereida
257,High-Perform
258,TERRAI
259,hot
260,MOOR
261,foliosa
262,recoveri
263,aas-
264,Atom
265,toxic
266,LOGGER
267,beach
268,frankhurley
269,polit
270,Zealand
271,HEAD
272,SUB-TROP
273,elizabeth
274,ausgrid
275,TUSSOCK
276,patella
277,Ocean
278,DOPPLER
279,geolog
280,beauti
281,Wilk
282,cement
283,trader
284,core
285,law
286,Petersen
287,healthadministr
288,inventori
289,Coprosma
290,All
291,ALGA
292,domin
293,TOPOGR
294,Chloruru
295,GRADIENT
296,umitaka
297,davi
298,carotenoid
299,fungi
300,childhood
301,detent
302,perform
303,drupa
304,environ
305,reloc
306,digitalliteraci
307,apsc
308,vapor
309,PETERSEN
310,order
311,wind
312,wine
313,Blue
314,BACTER
315,Moss
316,composit
317,Elev
318,transect
319,CTDOXi
320,Infrar
321,fall
322,Ambul
323,nim
324,SONAR
325,labourforc
326,LONGLIN
327,incid
328,GROWTH/
329,coronatu
330,magariticola
331,mayor
332,digest
333,SCIENC
334,Machin
335,Urban
336,soileros
337,Diseas
338,manuscript
339,fit
340,PRB
341,SAB
342,ANZSIC
343,Respons
344,DEPTH/T
345,imo
346,(annelids)
347,SAZ
348,offic
349,FISHERi
350,Stephanometra
351,biodegrad
352,ATO
353,croquet
354,SAR
355,time-seri
356,CHA
357,GREENSLAD
358,anim
359,fibr
360,density-
361,Robberi
362,dna
363,plaster
364,safe
365,CHL
366,disturb
367,recruit
368,triec
369,Footprint
370,jokulhlaup
371,Stoichact
372,iripa
373,surgic
374,SA3
375,SA2
376,GLACIAL
377,Psycholog
378,tourism
379,bank
380,SA4
381,Employe
382,CLAIM
383,acma
384,AUSTRALIA
385,CSAM
386,meat
387,Habitat
388,Start
389,APS
390,India
391,Indic
392,Callitrich
393,chemistry-
394,API
395,PEST
396,Inland
397,DOC
398,lepidopteran
399,Administraion
400,MARGIN
401,KRILL
402,Transport
403,Sub-Facil
404,Variabl
405,burial
406,Biospher
407,laboratori
408,magneto
409,ERS-1
410,Percent
411,stellulata
412,cartographi
413,microb
414,Ophiarachnella
415,septemspinosa
416,resaw
417,extract
418,crisp
419,LATITUD
420,NUTRIEN
421,network
422,BOPC
423,centrelink
424,gradient
425,facil
426,motel
427,bustimet
428,diesel
429,Chaetopterida
430,morpholog
431,i1
432,Holm
433,CLIVAR
434,festuca
435,gelbstoff
436,fluoromet
437,debit
438,Drainag
439,sme
440,Educ
441,miningindustri
442,ION-EXCHANG
443,PROTI
444,subulata
445,Sounder
446,SNP
447,navig
448,Orthophoto
449,planned-activity-group
450,Work
451,Metal
452,Worm
453,free
454,standard
455,flatworm
456,spill
457,Pension
458,LYSOGEN
459,spencer
460,Soft
461,Geo-spati
462,vulpinu
463,hydrocarboon
464,welfar
465,Visitor
466,ASTER
467,isolepi
468,Urgent
469,Hors
470,rais
471,Human
472,TIME
473,Tigri
474,capitalwork
475,AU
476,Loew
477,Pollut
478,turbinellum
479,semaphor
480,rang
481,performing-art
482,Fertil
483,vertebr
484,enterpris
485,Spirobranchu
486,Tecton
487,massif
488,Activ
489,wast
490,restrict
491,Ameri
492,gravimetr
493,TREATMENT
494,thick
495,SEABIRD
496,primari
497,hood
498,Altimet
499,signag
500,BOTTL
501,LAND
502,(COTS)
503,waste-collect
504,AREA
505,air-condition
506,top
507,evolut
508,located-grid
509,ballarat-historic-urban-landscap
510,spawn
511,confectioneri
512,azorella
513,FIBEX
514,CTDSAL
515,viral
516,dwell
517,geospatialinform
518,eba-
519,triterpin
520,Photosynthet
521,Non-urgent.
522,Adult
523,Secchi
524,Photosynthesi
525,Sipuncula
526,TRIG
527,undosu
528,Restroom
529,streetlight
530,Benefit
531,FOLIOSA
532,western
533,cereal
534,conserv
535,SHIP
536,TRIP
537,BIOMET
538,Semi-urg
539,Plateau
540,Nutrit
541,pedestrian
542,MCDONALD
543,melbourn
544,JOKULHLAUP
545,Alkalin
546,tree
547,rate
548,Sex
549,project
550,matter
551,ERYTHEM
552,fm
553,Sea
554,Adeli
555,Holothurian
556,stori
557,SPEED
558,ballarat
559,latitud
560,chemistri
561,apra
562,OZON
563,CHLOROPHYL
564,Floor
565,Interst
566,PPR
567,internetbas
568,mine
569,glass
570,SPECIAT
571,raw
572,paleo
573,seed
574,Crab
575,Town
576,SAMPNO
577,Topolog
578,Preval
579,Aspidochirot
580,ACCESS
581,Matur
582,strength
583,agriculture-
584,recreat
585,Chlorophyl
586,Cardiida
587,DRIFT
588,snow
589,ABC
590,veterinarymedicin
591,launceston
592,graticule/grid
593,Appendix
594,AZORELLA
595,CAML
596,Hyotissa
597,gambier
598,SEDIMENTOLOG
599,roadaccid
600,POC
601,CLOUD
602,POA
603,princess
604,staffsurvey
605,insur
606,Applic
607,nrp
608,electrophoresi
609,object
610,Wine
611,terrestri
612,memorabilia
613,marin
614,Recycl
615,Korea
616,Cultana
617,unemploy
618,Lethrinu
619,COCCOLITHOPHORID
620,granulifera
621,Meal
622,GROUND
623,zealand
624,hut
625,SURFAC
626,Ray-fin
627,QU
628,d'Urvil
629,refinanc
630,Herbivor
631,metal
632,dog
633,arthropods-
634,hospit
635,leaflet
636,taxstat
637,Bridg
638,"""tabulate"""
639,analyzer-
640,lesse
641,miliari
642,cholesterol
643,Quarantin
644,Viscos
645,PAR
646,Monitor
647,visitor
648,Carex
649,AAMBER
650,cake
651,Aegial
652,radio
653,estuarin
654,popu
655,earth
656,onlinesafeti
657,PAM
658,Meters/Profil
659,European
660,COMMENT
661,consolid
662,Platygyra
663,Aquacultur
664,vegrandi
665,Crown-of-thorn
666,restaur
667,endeavour
668,fisher
669,busi
670,GCCSA
671,Governa
672,BROKE
673,58.4.2
674,WEDDEL
675,tropic
676,AUSGeoid98
677,mangrov
678,photogrammetri
679,Euphausiid
680,plate
681,Account
682,Acoust
683,astro-
684,Level
685,REMOT
686,quarantin
687,de
688,stop
689,heritiera
690,coast
691,Anadarid
692,austend
693,report
694,Control
695,Niskin
696,Degrad
697,ds
698,Resuscit
699,orbiniida
700,Nitrat
701,earn
702,ANAR
703,ROTAT
704,REGION
705,fiscella
706,ARCHIV
707,Spectrogram
708,bay
709,adelia
710,indigen
711,Clinic
712,captaincook
713,chromatograph
714,bec
715,ADELI
716,SENS
717,ACN
718,movement
719,Heteracti
720,portabl
721,nolli
722,historicmonu
723,victim
724,CTDSAL_FLAG_W
725,liquor
726,alkalin
727,RECLAMATI
728,DMR
729,1345.0
730,GBR
731,SOOTi
732,Sydney
733,scintil
734,Vasum
735,ammen
736,AEM
737,hydrocarbon
738,NITRAT_FLAG_W
739,barbequ
740,co2
741,SILICAT
742,RIDG
743,databas
744,sail
745,SALINI
746,Dipteran
747,discoveri
748,Water
749,CFC-11_FLAG_W
750,FROZEN
751,PALAEOLIMNOLOG
752,HOOKERI
753,4.1
754,side
755,DIMETHYLSULPHIONOPROPION
756,Toxic
757,emergencyservic
758,COLLEMBOLA
759,extend
760,mineralog
761,etm--enhanc
762,Standard
763,wm
764,colac
765,Tree
766,HUMAN-ENVIRONMENT-Structures-and-Facil
767,DURAT
768,Vessel
769,aquarium
770,extent
771,carbon
772,advertis
773,debt
774,MICR
775,(krill)
776,protect
777,acoust
778,shapefil
779,Emperor
780,multibeam
781,1-
782,smallbusi
783,Conferenc
784,Sled
785,PSE
786,wholesal
787,ocea
788,DAVI
789,cob
790,iron
791,propinquu
792,uni
793,historicaldata
794,earth-
795,GROUND-BAS
796,PHSPHT
797,Scienc
798,and
799,Surfac
800,Complianc
801,murray-darlingbasin
802,TOPEX
803,applianc
804,kwh
805,Petroleum
806,mangal
807,height
808,BOTTOM
809,Cours
810,97
811,Fisher
812,Ireland
813,BULL
814,apprentic
815,trust
816,Method
817,Agenc
818,pastri
819,LANDSAT-7
820,liabil
821,bathroom
822,set
823,ICEBERG
824,DH
825,MARCO_AIR
826,openinghour
827,ranunculu
828,Southern
829,referendum
830,Hazard
831,specul
832,revenu
833,beer
834,tind
835,oceanographi
836,vover
837,interest
838,basic
839,secondworldwar
840,mybroadband
841,basin
842,Physic
843,altimet
844,Megavertebr
845,life
846,SRA
847,CO
848,VISCOS
849,spit
850,eastern
851,Use/Feed
852,excercis
853,hilla
854,Flow
855,Matern
856,Consumpt
857,TANGAROA
858,Biodivers
859,SRP
860,murray
861,taxat
862,GONATU
863,Plankton
864,Excoecaria
865,statelibraryofqueensland
866,Phosphat
867,frigidu
868,play
869,tide
870,break-in
871,tank
872,AAT
873,Process
874,plasma
875,servic
876,properti
877,CTDPR
878,Wast
879,air
880,employ
881,MOROTEUTHI
882,monodinium
883,marriag
884,Mitochondri
885,TDR
886,Apart
887,WW1
888,PUBLIC
889,Spectrophotometri
890,Extort
891,holocen
892,cane
893,Engin
894,conu
895,metropolitan
896,On
897,cano
898,theatr
899,ir
900,it
901,ii
902,CALCIUM
903,Spectromet
904,Busi
905,exili
906,in
907,FENTON'
908,Nathaniel
909,mollucensi
910,leather
911,Aquif
912,dilut
913,NAVIG
914,Tasmanian
915,receiv
916,Fromia
917,Pomacentru
918,EchoviewR
919,Stop
920,expect
921,INFORM
922,Latirolagena
923,Neoxanthin
924,ORGANOCHLORIN
925,watersuppli
926,MODI
927,INVERTEBR
928,costum
929,Echoview
930,european
931,administrativeboundari
932,VE
933,thermosalinograph
934,Electromagnet
935,Philippin
936,landownership
937,rail
938,otolith
939,rain
940,FLATWORM
941,suburb
942,GENBANK
943,mitochondri
944,boiler
945,ownership
946,mediareleas
947,Nitrit
948,photosynthet
949,europeanwasp
950,Newstart
951,LICHEN
952,EBA
953,not-for-profit
954,Pinctada
955,ocean
956,pmd*CRC
957,AUSTRALI
958,crimeandjustic
959,internationaltravel
960,performancemanag
961,programm
962,the
963,bacteri
964,cure
965,Vermivor
966,Light
967,CANE
968,FLUOROMAP
969,Centrelink
970,photo
971,biochemistri
972,graden
973,ELECTRON
974,Pimba
975,CONE
976,human
977,tussock
978,volunt
979,herbfield
980,1996-97
981,eunicida
982,dbcde
983,languag
984,publicsectorinform
985,adelaid
986,CLASSIF
987,(Siganidae)
988,signific
989,processes-
990,burnt
991,CONDUC
992,royal
993,BTLNBR_FLAG_W
994,Gap
995,DRi
996,ION
997,TGA
998,VOLUM
999,Wind
1000,prison
1001,AMD/JP
1002,VALLEY
1003,culturalboundari
1004,atmosphere-
1005,ato
1006,applic
1007,Schistidium
1008,dirver
1009,(PAR)
1010,zooplankton
1011,sanitari
1012,purchas
1013,CARBOHYDR
1014,Cryptopelta
1015,hrv-
1016,BAND
1017,sponsali
1018,tertiari
1019,birth
1020,opc
1021,cape
1022,glas-
1023,amino
1024,geohazard
1025,apart
1026,measur
1027,Art
1028,victoria
1029,Speci
1030,anzsic
1031,COMMUN
1032,attitud
1033,Echo
1034,Heard
1035,pavement
1036,seawif
1037,Immunolog
1038,paperboard
1039,night
1040,tenen
1041,publictransport
1042,csiro
1043,underli
1044,imagin
1045,oxid
1046,seismolog
1047,Cambrai
1048,famili
1049,crown
1050,System
1051,quailti
1052,obituari
1053,airglow
1054,malaysia
1055,intern
1056,pictureaustralia
1057,Analyz
1058,Gelbstoff
1059,cnidarians-
1060,heritag
1061,bore
1062,earthquak
1063,AB
1064,orchid
1065,wireless
1066,REPLIC
1067,Life
1068,Syllida
1069,COPD
1070,for
1071,collect
1072,askenasia
1073,ice
1074,Substrat
1075,rauer
1076,Hi
1077,ULTRAVIOLET
1078,Quarri
1079,landmanag
1080,PTT
1081,MEADOW
1082,foi
1083,Davi
1084,ict
1085,MCKELLAR
1086,plu
1087,DISEAS
1088,2008-09
1089,post
1090,corn
1091,crown-of-thorn
1092,QUALITi
1093,PMD*CRC
1094,discount
1095,exoticfauna
1096,relationship
1097,GRAVITY/GRAVITATIONA
1098,biogeochemistri
1099,CAPE
1100,Grab
1101,nativefauna
1102,headcount
1103,SIZE
1104,Glutaraldehyd
1105,obi
1106,Eunicida
1107,coral
1108,ACETON
1109,contamin
1110,terebellida
1111,le
1112,thermistor
1113,alkaloid
1114,um-
1115,crinoid
1116,Calendar
1117,seabird
1118,PCM
1119,Mawson'
1120,Dynam
1121,hydroxyl
1122,ciliat
1123,flagpol
1124,Use
1125,telephon
1126,gazett
1127,salisburi
1128,Coupl
1129,ELECTROMAGNET
1130,Design
1131,petroleum
1132,ephemera
1133,profession
1134,ARTEFACT
1135,bath
1136,Environment
1137,creativ
1138,Oxycomanthu
1139,right
1140,FJORD
1141,paper
1142,coastal
1143,HUMAN-ENVIRONMENT-Plan
1144,salin
1145,Kontikia
1146,Chariti
1147,storag
1148,R/V
1149,spectrogram
1150,geochemistry-
1151,Vapor
1152,CODE
1153,fabric
1154,tasmania
1155,Amen
1156,support
1157,NBP
1158,transform
1159,Stormwat
1160,avail
1161,eyr
1162,NBN
1163,wax
1164,Hobart
1165,wav
1166,Oversea
1167,war
1168,analysi
1169,CORE
1170,head
1171,medium
1172,DNA
1173,forc
1174,infaun
1175,emigr
1176,Turbinaria
1177,TEMPERATU
1178,Pectinaria
1179,heat
1180,pleurophyllum
1181,Survey
1182,solar
1183,Goniastrea
1184,natural-resourc
1185,PARALABIDOCERA
1186,mosmanmunicipalcouncil
1187,DEW
1188,Hospit
1189,GC-FID
1190,ADI
1191,ROOKERi
1192,lobata
1193,topogr
1194,wineri
1195,PLANETARi
1196,geospati
1197,Fire
1198,maximum
1199,mural
1200,RADAR
1201,pest
1202,victoriangovern
1203,marbin-
1204,yongala
1205,uncinia
1206,FREEZE/THA
1207,I1-Appendix
1208,seafood
1209,FACScan
1210,Eucalyptu
1211,Multichannel
1212,GroundWat
1213,featur
1214,Develop
1215,kilometr
1216,VET
1217,first-home-benefit
1218,sale
1219,GEOCHRONOLOG
1220,gland
1221,REACTIV
1222,magnifica
1223,ship
1224,quantiti
1225,Ceriop
1226,nondispers
1227,Highway
1228,PROBABl
1229,FLAGPOL
1230,High
1231,ORTHOPHOTO
1232,PLEISTOCEN
1233,floor
1234,glacier
1235,winegrap
1236,tip
1237,saliburi
1238,circulatori
1239,Glycerida
1240,cytherea
1241,Advisor
1242,test
1243,aerosol
1244,XRD
1245,depot
1246,nt
1247,cryosphere-
1248,Induct
1249,(ADCP)
1250,matur
1251,GEOCHEMISTRi
1252,250K
1253,determin
1254,Franc
1255,METAL
1256,Drive
1257,diet
1258,GEOSCIENC
1259,soop
1260,intens
1261,notic
1262,ESA
1263,Monument
1264,Triag
1265,detox
1266,riverin
1267,Montipora
1268,RECLAM
1269,historicdocu
1270,Lugol
1271,biomass
1272,250k
1273,Climat
1274,Person
1275,ROUT
1276,bottom
1277,chemtax
1278,Earli
1279,pet
1280,Intern
1281,warm
1282,MICROSCOP
1283,time
1284,Open
1285,letter
1286,anxieti
1287,ICESAT-II
1288,shop
1289,opal
1290,chain
1291,profiler-adcp
1292,control
1293,global
1294,Ophiomyxa
1295,leptinella
1296,CORER
1297,Gawler
1298,Vestfold
1299,vegetatio
1300,ABANDON
1301,Geelong
1302,mill
1303,album
1304,CFC-12
1305,Northern
1306,streetlsight
1307,polari
1308,grape
1309,Tourist
1310,zone
1311,downwel
1312,Dam
1313,Dan
1314,Burn
1315,NIVEA
1316,curculionida
1317,cach
1318,environment
1319,SPECTROMET
1320,cemographi
1321,wed
1322,vegetation-
1323,Buoy
1324,giga
1325,Weddel
1326,CILIAT
1327,epim
1328,Lumnitzera
1329,methyl
1330,DOMIN
1331,ipy-
1332,FIX
1333,glenorchycitycouncil
1334,AUSTRALIA/NEW
1335,Recruit
1336,FUNGI
1337,marray-darlingbasin
1338,convict
1339,cook
1340,erp
1341,VAP
1342,gla
1343,cool
1344,Apertur
1345,Encount
1346,Rang
1347,icp
1348,hour
1349,administr
1350,level
1351,PROCESS
1352,Acanthuru
1353,leucin
1354,Global
1355,Terrain
1356,turbinida
1357,AUTOMAT
1358,anemon
1359,magnet
1360,Zeaxanthin
1361,apodid
1362,WILK
1363,no3
1364,sedimentari
1365,He
1366,PLEUROPHYLLUM
1367,Nassariu
1368,soilphys
1369,trafficalert
1370,melanesica
1371,meadow
1372,montia
1373,cultural-centr
1374,boundaries-
1375,tactile-pav
1376,NEST
1377,School
1378,Waterbodi
1379,sign
1380,pmd
1381,Sulphur
1382,STAR
1383,Rel
1384,Conduct
1385,PCB
1386,run
1387,Height
1388,anzic
1389,port
1390,precipit
1391,spectral
1392,mortal
1393,watersalin
1394,/Grid
1395,currenc
1396,rookeri
1397,wahlberghi
1398,UVR
1399,Financ
1400,VOLCAN
1401,melt
1402,Enhanc
1403,current
1404,Irradi
1405,sipex
1406,UVA
1407,UVB
1408,ground
1409,climatolog
1410,CONTOUR
1411,PENGUIN
1412,STIK
1413,Euphausia
1414,Properti
1415,Ma
1416,deriv
1417,sidescan
1418,airtransport
1419,emergencymanagementnsw
1420,honour
1421,Age
1422,learn
1423,PHOSPHA
1424,DSS
1425,woman
1426,water
1427,NANOFLAGEL
1428,DSL
1429,Synaptula
1430,juri
1431,Satellite-2
1432,address
1433,Alexandrina
1434,bicycl
1435,tagal
1436,Amanda
1437,Respir
1438,Favia
1439,wait
1440,box
1441,chloronotu
1442,gaudiosu
1443,pigments-
1444,INT
1445,AGRICULTUR
1446,HELICOPT
1447,Dead
1448,constitu
1449,REAGENT
1450,nereida
1451,throughput
1452,bom
1453,Acropora
1454,healthi
1455,corp
1456,manningham
1457,Cardiovascular
1458,y4
1459,CYTOMETRi
1460,CONTOU
1461,bolt
1462,SWIM
1463,dioxid
1464,Macroinvertebr
1465,elect
1466,Viral
1467,GLA
1468,Oithona
1469,Sail
1470,kayak
1471,assemblag
1472,peridinin
1473,visibl
1474,marker
1475,dispers
1476,mobil
1477,avicennia
1478,market
1479,planci
1480,Australia
1481,Bathymetri
1482,univers
1483,DESCRIPT
1484,small-to-mediumenterpris
1485,vineyard
1486,GLAND
1487,Puccinellia
1488,Visa
1489,MACARONI
1490,Diel
1491,innov
1492,australian
1493,AMERICA
1494,scopa
1495,Mosaic
1496,Comment
1497,capit
1498,OXIDIS
1499,chlamydomona
1500,Impact
1501,afford
1502,peopl
1503,Synthet
1504,curriculum
1505,PROTIST
1506,CONTENT
1507,Catch
1508,visual
1509,appendix
1510,ceratodon
1511,helminth
1512,examin
1513,Time
1514,petrographi
1515,Manningham
1516,Schedul
1517,RISCC
1518,religi
1519,Groundwat
1520,wool
1521,slogan
1522,"Ice,"
1523,ferri
1524,childeren
1525,Emiss
1526,PROTOZOOPLANKTON
1527,stocktak
1528,cat
1529,fli
1530,januali
1531,ms-
1532,palmata
1533,umemploy
1534,O'Brien
1535,Famili
1536,Detritu
1537,ocd-garbage-2.1
1538,fauna
1539,purpos
1540,PUP
1541,Children
1542,cad
1543,up
1544,claim
1545,community-hal
1546,gravimet
1547,ERP
1548,statelibraryofvictoria
1549,urvil
1550,Polic
1551,microbiota
1552,chip
1553,nassatula
1554,entomolog
1555,BAY
1556,SUBSTRAT
1557,heard
1558,hydrographi
1559,council
1560,sharp
1561,recycl
1562,agenc
1563,Superannu
1564,EUDYPT
1565,spectrophotometri
1566,occup
1567,dog-walk
1568,heterotroph
1569,room
1570,DATA
1571,TRAWL
1572,economi
1573,write
1574,Mycosporine-lik
1575,Fruit
1576,humanenviron
1577,lifesav
1578,LEVEL
1579,Characterist
1580,winds-
1581,CIRCUMPOLAR
1582,map
1583,product
1584,Annual
1585,companionanim
1586,book
1587,Provid
1588,Commenc
1589,SOUTHERN
1590,Imperi
1591,spot
1592,motorway
1593,publictoilet
1594,membership
1595,pave
1596,sp.
1597,commit
1598,date
1599,CACH
1600,Model
1601,data
1602,tannin
1603,accessori
1604,buildingsocieti
1605,stress
1606,Suspend
1607,knit
1608,liquid
1609,wheelchair
1610,sp
1611,sabellida
1612,BIOMASS
1613,avenu
1614,produc
1615,temperatu
1616,inform
1617,sandbox
1618,Videographi
1619,HEALTH
1620,deposit
1621,lagoon
1622,offend
1623,Reserv
1624,sa
1625,em31
1626,CON
1627,travel
1628,offenc
1629,refund
1630,bushwalk
1631,Bioremedi
1632,canberra
1633,Author
1634,food
1635,ROYAL
1636,cyclist
1637,Gase
1638,Thelanota
1639,graduat
1640,weddellii
1641,Perth
1642,FILE
1643,solubl
1644,Biochemistri
1645,Ecolog
1646,White
1647,TO
1648,THE
1649,dynam
1650,entiti
1651,ethic
1652,ceremoni
1653,megavertebr
1654,group
1655,monitor
1656,hors
1657,Seismic
1658,polici
1659,methansulphon
1660,opportun
1661,VIRUS
1662,councillor
1663,DENISON
1664,ncver
1665,permitte
1666,Whitney
1667,MONITO
1668,torr
1669,BREATH
1670,World
1671,Yandandarr
1672,main
1673,Skelet
1674,consult
1675,ocd-dogzones-0.1
1676,nom
1677,non
1678,usa
1679,civilian
1680,financi
1681,GASES/LIQUID
1682,SOUNDER
1683,exot
1684,nation
1685,fr
1686,lugol
1687,localgovern
1688,Vermetida
1689,base
1690,DISSOLV
1691,not
1692,Auster
1693,tenni
1694,metallogenesi
1695,Manag
1696,First
1697,HRV
1698,votecompass
1699,down
1700,term
1701,Electr
1702,name
1703,ppr
1704,III
1705,admiss
1706,LAKE
1707,RADIAT
1708,Skii
1709,Surfacewat
1710,Isopod
1711,CFC113_FLAG_W
1712,1994-95
1713,Hermatyp
1714,rock
1715,resili
1716,kerb
1717,SELAGO
1718,neogen
1719,Desfulfobacula
1720,domain
1721,100K
1722,Maritim
1723,Clock
1724,cairn
1725,median
1726,BATHYMETRY/SEAFLOOR
1727,Themat
1728,continu
1729,Manufactur
1730,Jervi
1731,Live
1732,WATERCOURS
1733,haul
1734,Thala
1735,year
1736,00/802
1737,Bottl
1738,robsoni
1739,dispos
1740,lesson
1741,er
1742,hydrostratigraphi
1743,MOUNTAIN
1744,absorpt
1745,Elizabeth
1746,space
1747,profit
1748,UNDERWAT
1749,infrar
1750,TIDE
1751,profil
1752,hcc
1753,Job
1754,nassariu
1755,Key
1756,Pengiun
1757,sedimentolog
1758,lubric
1759,sensor
1760,correct
1761,screw
1762,skiway
1763,diseas
1764,biosphere-
1765,Predat
1766,bathymetri
1767,Verner
1768,domest
1769,contain
1770,synaptula
1771,Commerci
1772,Stoni
1773,Employ
1774,Record
1775,littorali
1776,clean
1777,marina
1778,Divison
1779,wi-fi
1780,Cardamin
1781,octopu
1782,care
1783,departur
1784,LEAF
1785,OPTIC
1786,visit
1787,Bin
1788,PHYTOPLANKTON
1789,NRSYON
1790,Harbour
1791,Gallipolli
1792,Echinoid
1793,place
1794,footwear
1795,opengovern
1796,greenhous
1797,PEROXID
1798,Environ
1799,AdelaideFre
1800,Nondispers
1801,opencouncildata
1802,permit
1803,oper
1804,non-residenti
1805,suspend
1806,Mistleto
1807,Frittilaria
1808,cadastr
1809,Mobilong
1810,ISP
1811,Royal
1812,beverag
1813,rins
1814,one
1815,price
1816,acquisit
1817,Furnitur
1818,Black
1819,coprosma
1820,iiNet
1821,Citizen
1822,vote
1823,livestockproduct
1824,ring
1825,open
1826,arctic
1827,size
1828,sheep
1829,competit
1830,sheet
1831,boeckella
1832,bloom
1833,Dive
1834,Resolut
1835,Pteropod
1836,SEX
1837,citi
1838,CONTROL
1839,BAIT
1840,SEA
1841,Conserv
1842,Date
1843,ECOLOG
1844,white
1845,MESOSPHER
1846,Data
1847,filter
1848,CFC113
1849,FOOD
1850,militaria
1851,ROBSONI
1852,starfish
1853,coccolithophorid
1854,GLACIER
1855,NERP
1856,Geophysi
1857,IMO
1858,Histori
1859,broadcast
1860,short
1861,prydz
1862,TROUGH
1863,hotwat
1864,thai
1865,GEORG
1866,Roadwork
1867,11
1868,10
1869,13
1870,12
1871,iceberg
1872,Airborn
1873,easement
1874,appendicularian
1875,PACK
1876,hydrochemistri
1877,TEU
1878,CATCHMENT
1879,PACIF
1880,Larsemann
1881,Thysanoessa
1882,balanc
1883,SOLAR
1884,healthwel
1885,posit
1886,magnetotellur
1887,Juncu
1888,Settlement
1889,surrog
1890,2005-06
1891,transport
1892,seri
1893,prospect
1894,Cerithiida
1895,DM
1896,ana
1897,grammiti
1898,19'-hexanoyloxyfucoxanthin
1899,lethrinid
1900,DE
1901,ani
1902,Quality/Wat
1903,Field
1904,DEPTH
1905,BPR
1906,rent
1907,Torr
1908,adeli
1909,turner
1910,Valley
1911,Ophiarthrum
1912,NEOGEN
1913,Sick
1914,icesat-
1915,engin
1916,squar
1917,advic
1918,australi
1919,LABORATORi
1920,Angiosperm
1921,PHSPHT_FLAG_W
1922,dedic
1923,zoo
1924,note
1925,other
1926,satellit
1927,imageri
1928,SILCAT
1929,Invest
1930,chiller
1931,Yankalilla
1932,channel
1933,surf
1934,plgr
1935,Name
1936,trace
1937,AWO
1938,track
1939,JULIAN
1940,Servic
1941,spionida
1942,TV
1943,HEIGHT
1944,exclus
1945,assault
1946,Good
1947,SSMI
1948,cantharu
1949,RATE
1950,mawson
1951,sa3
1952,sa2
1953,Childhood
1954,sa4
1955,substrat
1956,Stillwel
1957,bakeri
1958,rescu
1959,NAPLAN
1960,VISCOMET
1961,adopt
1962,drive
1963,science-
1964,Kerguelan
1965,Antarctica
1966,SAMPL
1967,grassland
1968,hear
1969,cordierit
1970,NRP
1971,salt
1972,boundari
1973,slope
1974,WF
1975,WC
1976,DILUT
1977,WA
1978,Comatella
1979,formal
1980,WM
1981,BREED
1982,MARK
1983,remote.
1984,Brisban
1985,customer-service-centr
1986,EXTENT
1987,handwrit
1988,earthworm
1989,Ski
1990,Underwat
1991,SOUTH
1992,starfish-cot
1993,FRAMN
1994,HUMID
1995,ALKALI
1996,fenc
1997,corrug
1998,transact
1999,Leg
2000,activ
2001,pump
2002,crime
2003,Hydrocotyl
2004,Drupa
2005,black
2006,analyz
2007,Solar
2008,Canthaxanthin
2009,ARIS
2010,analyt
2011,AMBERLIT
2012,Meningi
2013,activeconstitu
2014,web2.0
2015,darlingharbour
2016,floe
2017,nov.
2018,Species/Popul
2019,"System,"
2020,censu
2021,vocalis
2022,secondari
2023,SIPEX
2024,Reactiv
2025,outlet
2026,Chromatograph
2027,Spionida
2028,geo
2029,dmr-
2030,CAPEX
2031,gel
2032,Arthurdendyu
2033,mapper
2034,ACOUST
2035,Salin
2036,piri
2037,ad-hoc
2038,biogeograph
2039,thermal
2040,email
2041,CEAMARC
2042,IKONO
2043,cf
2044,Ophiuroidea
2045,demograph
2046,telecommun
2047,cardamin
2048,Syndrom
2049,Socials
2050,WINDMIL
2051,ANZAC
2052,Inventori
2053,rmt
2054,MEDIA
2055,pinctada
2056,openspac
2057,seat
2058,biogeographi
2059,Profilers)
2060,Microwave/Imag
2061,stylosa
2062,CHROMATOGRAPH
2063,seal
2064,seab
2065,calendar
2066,sport
2067,uvb
2068,televis
2069,(Acanthuridae)
2070,metabol
2071,Departur
2072,forecast
2073,JARE
2074,sordidu
2075,estat
2076,Trough
2077,wilk
2078,import
2079,Thai
2080,amberlit
2081,OBSERV
2082,urban
2083,Halosarcia
2084,grandpar
2085,Target
2086,parent
2087,2000-01
2088,spring
2089,deliver
2090,national-park
2091,hymenoptera
2092,jp
2093,dome
2094,SANDi
2095,archaeolog
2096,Leisur
2097,cycl
2098,AOD
2099,CONCENT
2100,EXPOCOD
2101,ECHO
2102,ADBEX
2103,regionalaustralia
2104,s4a
2105,dkt
2106,CHEMTAX
2107,epitok
2108,region
2109,sodium
2110,Automat
2111,topography-
2112,1995-96
2113,steroid
2114,highereduc
2115,sustain
2116,Cultur
2117,hexacorals-
2118,railway
2119,Spectroradiom
2120,WIND
2121,Morula
2122,pakistan
2123,Death
2124,biphenyl
2125,COW
2126,environmentandnaturalresourcemanag
2127,Travel
2128,classif
2129,pop
2130,drupella
2131,duti
2132,isopod
2133,COB
2134,ENVIRON
2135,gerlachei
2136,DRILL
2137,Colobanthu
2138,cancel
2139,aerial
2140,scuticocili
2141,mattress
2142,coloni
2143,boat
2144,damag
2145,ANALYSI
2146,save
2147,2003-04
2148,VOCALIS
2149,coupl
2150,Research
2151,west
2152,CASO
2153,carex
2154,BOARDWALK
2155,LANDSCAP
2156,FOI
2157,97/06
2158,maru
2159,VOYAG
2160,nh4
2161,godeffroyi
2162,Leptonychot
2163,KERGUELEN
2164,Krill
2165,flavonoid
2166,Birth
2167,bryum
2168,summari
2169,DUNE
2170,NUMBER
2171,FIELD
2172,Kapunda
2173,petrol
2174,COML
2175,Particip
2176,Path
2177,aviat
2178,WAV
2179,Copepod
2180,Davenport
2181,spirit
2182,SALNTY_FLAG_W
2183,case
2184,RECORD
2185,CO2
2186,Aerial
2187,Centr
2188,mount
2189,cash
2190,irc748
2191,TRACK
2192,countrygroup
2193,Hooker'
2194,outcom
2195,graze
2196,Order
2197,Lauren
2198,margin
2199,Coorong
2200,Microwav
2201,Size
2202,Contamin
2203,zonat
2204,Geodesi
2205,ORGAN
2206,soil
2207,strait
2208,AIR
2209,Divis
2210,Physiolog
2211,geoscientificinform
2212,Lunar
2213,gonatu
2214,REFUG
2215,AIF
2216,Anthozoans/Hexacor
2217,tourist
2218,I9
2219,Old
2220,Plant
2221,SNOW/IC
2222,develop
2223,author
2224,universitystud
2225,parliament
2226,medic
2227,econom
2228,trip
2229,ctd-
2230,statewid
2231,rda
2232,Popu
2233,PERMAN
2234,GEOMORPH
2235,ecolog
2236,Landcar
2237,NSW
2238,Polynoida
2239,australianbroadbandguarante
2240,SIBEX
2241,Oxygen
2242,Map
2243,IP
2244,nest
2245,IR
2246,driver
2247,IT
2248,buildingandconstruct
2249,weed
2250,II
2251,capabl
2252,cybersafeti
2253,Windmil
2254,McMurdo
2255,predatio
2256,IN
2257,footprint
2258,tessulatu
2259,sheets-
2260,Bryophyt
2261,ID
2262,DIGEST
2263,Distribut
2264,memori
2265,break
2266,isotop
2267,drain
2268,Trace
2269,RESIGHT
2270,bikepath
2271,AQUA
2272,Sub-Stat
2273,Primari
2274,AIRGLOW
2275,interst
2276,obstetr
2277,surface-
2278,titl
2279,model
2280,workplac
2281,vacanc
2282,Port
2283,Demograph
2284,gdp
2285,sipuncula
2286,outdoor
2287,CLIMAT
2288,livestock
2289,wale
2290,(flower
2291,compound
2292,oceans-
2293,rest
2294,callitrich
2295,tasmanian
2296,custodi
2297,Lookup
2298,freedomofinform
2299,aspect
2300,litholog
2301,Occup
2302,speed
2303,1998-99
2304,topog
2305,Guest
2306,Analysi
2307,vasum
2308,death
2309,asthma
2310,cancer
2311,Sidescan
2312,flood
2313,mcdonald
2314,rental
2315,EM31
2316,Dome
2317,tellur
2318,Pigment
2319,airfield
2320,instrument
2321,BURSAL
2322,perth
2323,treatment
2324,HPLC
2325,Complet
2326,Ranunculu
2327,ross
2328,earli
2329,Welfar
2330,psi
2331,Disabl
2332,lithostratigraphi
2333,GEOMORPHOLOG
2334,Island
2335,EUKARYOT
2336,pictori
2337,roadfat
2338,amd
2339,period
2340,Project
2341,Indigen
2342,temperatur
2343,traffic
2344,Luzula
2345,perier
2346,world
2347,part
2348,migrant
2349,Citizenship
2350,Gravimetr
2351,Microsatellit
2352,oxygen
2353,demographi
2354,telemetri
2355,Consum
2356,acutu
2357,benefit
2358,Subantarct
2359,Magnetotellur
2360,Bohadschia
2361,clay
2362,output
2363,tower
2364,ETM+
2365,manag
2366,deliveri
2367,landslip
2368,levelofprocess
2369,phototroph
2370,LASER
2371,SUB-ANTARCT
2372,Murex
2373,thermodynam
2374,West
2375,poi
2376,Mark
2377,Maru
2378,BROKE-West
2379,lobster
2380,landslid
2381,Fluoromet
2382,SPATIAL
2383,New
2384,juncu
2385,2012-13
2386,gross
2387,accommod
2388,Alkaloid
2389,BECHERVAIS
2390,proport
2391,Heritag
2392,legal
2393,aus-geo-csv
2394,Estat
2395,Holothuria
2396,communitysafeti
2397,mustelinu
2398,thala
2399,lutea
2400,baptism
2401,poa
2402,Coryba
2403,fibula
2404,refer
2405,gullydens
2406,process
2407,INVESTIG
2408,SHEET
2409,power
2410,Turbo
2411,farmsurvey
2412,garbag
2413,inspect
2414,Dri
2415,giganteu
2416,leadership
2417,habi
2418,newscorp
2419,Gaug
2420,Crinoid
2421,ammonium
2422,chlorid
2423,don
2424,brighton
2425,lock
2426,on
2427,Dendrochirot
2428,central
2429,carer
2430,ace
2431,AP
2432,island
2433,sri
2434,holothuroid
2435,stoni
2436,Trade
2437,LEUCIN
2438,srp
2439,arthriti
2440,Polystichum
2441,Explor
2442,GEOCH
2443,apps4nsw
2444,indoor-recr
2445,industri
2446,Surviv
2447,emergencymanagementv
2448,or
2449,road
2450,wire
2451,RANG
2452,percept
2453,effici
2454,maternal-child-health
2455,garnet
2456,peninsula
2457,DAPHNIOPSI
2458,Epiobiont
2459,surviv
2460,playground
2461,subantarct
2462,Polychaet
2463,homeless
2464,Ada
2465,End
2466,openmarket
2467,airlin
2468,Chamid
2469,mental
2470,sealer
2471,cerithiida
2472,fast
2473,log
2474,lod
2475,Advanc
2476,Zooplankton
2477,Barometr
2478,diatoxanthin
2479,AMD/FR
2480,Peninsula
2481,skate-park
2482,Insect
2483,ikono
2484,Arca
2485,Predatio
2486,Geodet
2487,resolut
2488,valley
2489,NT
2490,bottl
2491,PHOSPHORU
2492,Tunic
2493,Radiomet
2494,Remot
2495,dieldrin
2496,VEGETATIO
2497,Sector
2498,concess
2499,aspect-
2500,cabinet
2501,RDA
2502,THALA
2503,Permit
2504,POSIT
2505,Dardanel
2506,SEDI
2507,atlasoflivingaustralia
2508,card
2509,hire
2510,Xylocarpu
2511,Ctenophor
2512,Envrion
2513,Catchment
2514,TERRITORi
2515,Princess
2516,latirolagena
2517,ballast
2518,monito
2519,SULFUR
2520,ausgeoid98
2521,grass
2522,pulp
2523,Special
2524,connect
2525,toilet
2526,ab
2527,ad
2528,USA
2529,Space
2530,horticultur
2531,nerp
2532,mytilida
2533,am
2534,STATU
2535,informationmanag
2536,ap
2537,Hot
2538,Lamprometra
2539,au
2540,Waypoint
2541,ASPECT
2542,CENSU
2543,echinoderm
2544,lethrinu
2545,Licenc
2546,Cirratulida
2547,musicu
2548,external-review
2549,film
2550,cream
2551,4.5
2552,sigalionida
2553,lamperti
2554,Watercours
2555,Resourc
2556,brick
2557,murex
2558,Radar
2559,Read
2560,broadbandathom
2561,RETENT
2562,SATELLIT
2563,precipitation-
2564,rubber
2565,field
2566,PRESSUR
2567,spatial
2568,sculptur
2569,SCUTICOCILI
2570,Ross
2571,Blechnum
2572,architectur
2573,correl
2574,alco
2575,Great
2576,FIRN
2577,fucoxanthin
2578,depress
2579,shelter
2580,sequenc
2581,cove
2582,ICE
2583,DISPERS
2584,biosit
2585,Celebr
2586,X-ray
2587,Spaceborn
2588,geodet
2589,Countri
2590,circul
2591,STANDARD
2592,Ascidian
2593,ICT
2594,fiscal
2595,cpi
2596,Austudi
2597,CHAIN
2598,wife
2599,directori
2600,invest
2601,thorn
2602,wifi
2603,descript
2604,SNOW
2605,Nassariida
2606,SIDE
2607,Thermal
2608,Street
2609,mass
2610,CHILE
2611,Year
2612,Youth
2613,nutrient
2614,seafloor
2615,degrad
2616,rhizophora
2617,TERRITORI
2618,togeth
2619,all
2620,BMI
2621,(Conductivity-Temperature-Depth
2622,Telecommun
2623,BOECKELLA
2624,Unknown
2625,Tube
2626,Breed
2627,Spectrom
2628,senior-citizen
2629,Segment
2630,pointsofinterest
2631,Satellit
2632,Station
2633,GAIN
2634,zinc
2635,CTDOXY_FLAG_W
2636,15
2637,merchandis
2638,princ
2639,AFRIC
2640,metamorph
2641,Porifera
2642,Brown
2643,dairi
2644,Ceratodon
2645,tv
2646,MANTL
2647,AMD/U
2648,Soil
2649,rf
2650,bruaneu
2651,to
2652,program
2653,Prydz
2654,drainpip
2655,Habi
2656,aboriginalheritag
2657,fountain
2658,Gambl
2659,te
2660,TECHNOLOG
2661,nationaldigitaleconomystrategi
2662,CCAMLR
2663,consum
2664,diari
2665,parcel
2666,song
2667,saponin
2668,fat
2669,statelibraryofnewsouthwal
2670,util
2671,print
2672,candid
2673,ultraviolet
2674,bleach
2675,Posit
2676,Mawson
2677,PICKET
2678,AMMONIUM
2679,Salt
2680,SAF
2681,condition
2682,induct
2683,anana
2684,pre
2685,anar
2686,Doppler
2687,Atmospher
2688,PALEOCLIM
2689,Hibiscu
2690,CONTAMIN
2691,Mollusc
2692,mile
2693,saudi
2694,Nitrogen
2695,plain
2696,Mollusk
2697,fuscopunctata
2698,regionaldevelopmentaustralia
2699,Macam
2700,Asset
2701,dimethylsulphid
2702,HYDROCARBON
2703,zeolit
2704,Biomass
2705,Hydrogeolog
2706,Authoris
2707,biolog
2708,pressur
2709,design
2710,nbn
2711,lawyer
2712,roadsid
2713,MARKER
2714,Arachnida
2715,Diabet
2716,LANDFO
2717,2007-08
2718,gonad
2719,abc
2720,sub
2721,maritim
2722,abg
2723,Rauer
2724,Charl
2725,section
2726,creditunion
2727,abn
2728,RTBG
2729,HUT
2730,eukaryot
2731,abr
2732,ozon
2733,Crassula
2734,intersect
2735,Geotherm
2736,destin
2737,Cape
2738,kontikia
2739,Landfil
2740,nanu
2741,public
2742,landus
2743,nobili
2744,full
2745,ANTABIF
2746,nigrofuscu
2747,pacif
2748,variat
2749,Lithophaga
2750,Scaru
2751,HCB
2752,HCC
2753,pendant
2754,SCREE
2755,savewat
2756,pengiun
2757,Meteorolog
2758,htisc
2759,financialinstitut
2760,Spencer
2761,valu
2762,polynoida
2763,Humid
2764,Conu
2765,Clark
2766,geophys
2767,TYPE
2768,Liquor
2769,antarctica-
2770,flowmet
2771,Zone
2772,soldier
2773,airport
2774,TOPOGRAPHi
2775,spaceborn
2776,social
2777,action
2778,asg
2779,Border
2780,STROMBIDIUM
2781,refriger
2782,HYDROXYL
2783,medicin
2784,vic
2785,Geothemat
2786,depart
2787,tides-
2788,Receiv
2789,caravan
2790,Top
2791,shotpoint
2792,africa
2793,Tow
2794,web-servic
2795,Palmer
2796,STATION
2797,Diffractomet
2798,REL
2799,magnesium
2800,SONG
2801,Secondari
2802,establish
2803,esri
2804,PSEUDOTRIQUETRUM
2805,CASEY
2806,TRANSECT
2807,PER
2808,sanguinolentu
2809,Insuffici
2810,Egg
2811,niger
2812,injuri
2813,regist
2814,scolytida
2815,coverag
2816,ctd-conduct
2817,Flatworm
2818,limbula
2819,WEATHER
2820,Corp
2821,offshor
2822,LFR
2823,polypu
2824,Peac
2825,ballad
2826,REPRODUCT
2827,ENTRANC
2828,squid
2829,netbal
2830,SPIT
2831,Vic
2832,Miner
2833,vermivor
2834,AHECC
2835,landtopographi
2836,traineeship
2837,Y4-Deliver
2838,VISUAL
2839,settler
2840,Mass
2841,Statist
2842,broke
2843,glam
2844,SCAR-MARBIN
2845,STOVE
2846,compani
2847,Botan
2848,SOOP-TRV
2849,krill
2850,granul
2851,Ophiomastix
2852,OOMYCOTi
2853,Transect
2854,hous
2855,Tourism
2856,histori
2857,biodivers
2858,Backscatt
2859,avo
2860,dem
2861,Barrag
2862,Photo
2863,CHLOROPHi
2864,SA
2865,smelt
2866,veloc
2867,REACTION
2868,shark
2869,SEDIM
2870,scan
2871,RADARSAT-1
2872,registr
2873,emiss
2874,Kindergarten
2875,arabia
2876,larsemann
2877,content
2878,polychlorin
2879,protist
2880,explor
2881,phaeophorbid
2882,DATE
2883,Bivalvia
2884,Ground
2885,scar
2886,robinson
2887,scat
2888,CONCENTR
2889,OCCUPI
2890,triathlon
2891,cours
2892,court
2893,fevr
2894,Optic
2895,secur
2896,SPOT-1
2897,SPOT-3
2898,Photobiolog
2899,ASIC
2900,Litter
2901,botan
2902,divis
2903,AMOUNT
2904,Temperatur
2905,BLOOD
2906,Chromatographi
2907,Skiway
2908,invertebr
2909,southaustralia
2910,scienc
2911,BLOOM
2912,capitellida
2913,Residenti
2914,Measur
2915,plant
2916,infecti
2917,resourc
2918,digitaleconomi
2919,proti
2920,Geospati
2921,AMD/SCAR-MARBIN
2922,Dog
2923,Foreign
2924,reflect
2925,RAIS
2926,GRID
2927,Probatoir
2928,GLAC
2929,TUNA
2930,lanka
2931,Observ
2932,SECT_ID
2933,OR
2934,PRODUCT
2935,DISTANC
2936,DMSP
2937,countour
2938,HABITAT
2939,nematocera
2940,bpr
2941,coat
2942,Mytilida
2943,regolith
2944,puccinellia
2945,balteatu
2946,coal
2947,inland
2948,ortho
2949,geoch
2950,SEQUENC
2951,facebook
2952,egg
2953,DYNAM
2954,STILBOCARPA
2955,PRYDZ
2956,Hymenoptera
2957,Estim
2958,disast
2959,Bottom
2960,Scolytida
2961,trade
2962,Arthropod
2963,radar
2964,dynamics-
2965,Fisheri
2966,GEOLOG
2967,seawat
2968,Supplier
2969,taxonomi
2970,LINE
2971,y2
2972,Fauna
2973,eros
2974,Moult
2975,Full
2976,Bryum
2977,Beam
2978,NIMBUS-7
2979,PHOTOTROPH
2980,Traineeship
2981,geoscienc
2982,Quarterli
2983,self-identifi
2984,pcm
2985,2-
2986,genealog
2987,TOTAL
2988,alter
2989,pae
2990,Coccolithophorid
2991,ALBATROSS
2992,good
2993,explos
2994,geelongcouncil
2995,PLATE
2996,ceo
2997,sentenc
2998,pollut
2999,IPi
3000,Carotenoid
3001,Bay
3002,MORPHOLOG
3003,CHEMI
3004,terrain
3005,STNNBR
3006,toiletri
3007,bivalves-
3008,FLUOROMET
3009,geotherm
3010,foot
3011,Senior
3012,adventur
3013,coryba
3014,superba
3015,REFER
3016,CRYPTOPHYT
3017,Defens
3018,Lanka
3019,radiat
3020,Leptinella
3021,micro
3022,achiev
3023,reactiv
3024,Estuarin
3025,Council
3026,genom
3027,Graze
3028,paleoclimate-
3029,nationalandstatelibrariesofaustralasia
3030,Sport
3031,CORe
3032,trailer
3033,NRSDAR
3034,non-financi
3035,england
3036,Non-standard
3037,weight
3038,Debri
3039,Tax
3040,fish
3041,hard
3042,ATSI
3043,heavi
3044,Platform
3045,tafe
3046,oil
3047,Build
3048,Heart
3049,energi
3050,event
3051,Hydrolog
3052,Cordon
3053,OXYGEN_FLAG_W
3054,safeti
3055,alcohol
3056,suprem
3057,Micro-organ
3058,Nella
3059,SOLUBL
3060,substat
3061,CERATODON
3062,research
3063,Geophys
3064,ftb
3065,health
3066,hill
3067,collembola
3068,colobanthu
3069,Report
3070,COLLECTOR
3071,Appendicularian
3072,Tridacna
3073,climatoolog
3074,textil
3075,Protect
3076,assist
3077,EH
3078,localculturalinstitut
3079,advanc
3080,PLANKTON
3081,meteorit
3082,WAVE
3083,Isolepi
3084,Upwelling/Downwel
3085,INFECTI
3086,Riverin
3087,Pour
3088,EROSION/SEDIMENTATI
3089,Artisian
3090,Chang
3091,xylocarpu
3092,Blend
3093,geocod
3094,ER
3095,BOULDER
3096,albatross
3097,PARTICUL
3098,RMT
3099,WEDDELLII
3100,Scalibregnida
3101,SPECTRAL/ENGIN
3102,boatbuild
3103,CHLORID
3104,nrsyon
3105,ocd-childcare-centres-0.1
3106,fruit
3107,pteridophyt
3108,perman
3109,soilchemistri
3110,pot
3111,Asteroidea
3112,Orchid
3113,feed
3114,copper
3115,major
3116,media-releas
3117,Clean
3118,corallinu
3119,upwel
3120,exchang
3121,Elector
3122,Greenhous
3123,number
3124,Inorgan
3125,magneto-tellur
3126,foreignexchang
3127,frmae
3128,barwon
3129,gazet
3130,unhealthi
3131,FAUNA
3132,MONTH
3133,miss
3134,foraminifera
3135,take
3136,Murray-Darl
3137,opencouncildata-wards-0.1
3138,Intellectu
3139,palaeontolog
3140,guest
3141,paint
3142,aa-
3143,Cliona
3144,Aircraft
3145,construct
3146,COAST
3147,trend
3148,leash
3149,station
3150,contin
3151,retir
3152,statement
3153,shareduserpathway
3154,Belgium
3155,HERBFIELD
3156,southern
3157,BITR
3158,store
3159,adhes
3160,NPI
3161,spp
3162,Milang
3163,Rubbish
3164,SUCCESS
3165,Justic
3166,TWO-DIMENSION
3167,hotel
3168,park
3169,Bêche-de-m
3170,crimereport
3171,zealand-
3172,PYRAMIMONA
3173,otway
3174,Long
3175,Dumont
3176,tan
3177,qld
3178,statisticalinform
3179,cashrat
3180,Road
3181,actpla
3182,ornitholog
3183,exposur
3184,ianthella
3185,resour
3186,Cancer
3187,remot
3188,syrup
3189,PELAG
3190,PHANEROZO
3191,helicopt
3192,jetti
3193,youth
3194,aat
3195,REMNANT
3196,bridg
3197,SURVEY
3198,vocat
3199,consumpt
3200,aod
3201,inflow
3202,doc
3203,larva
3204,Radiometr
3205,comput
3206,Tannin
3207,atmospher
3208,emaciatu
3209,Iron
3210,HYDROPHON
3211,windmil
3212,Current
3213,packag
3214,antarctica
3215,graffiti
3216,expir
3217,warehous
3218,Censu
3219,Crude
3220,Phaeophytin
3221,antarctici
3222,BRYOPHYT
3223,eduli
3224,PETREL
3225,IMPACT
3226,mountain
3227,char
3228,bake
3229,FTE
3230,built
3231,CRYOSPHER
3232,Food
3233,Price
3234,parvillosa
3235,pringlea
3236,bacteria
3237,aster-
3238,labour
3239,build
3240,Bacteria
3241,cetacean
3242,RPK
3243,Rain
3244,CLASS
3245,wildlif
3246,Ammonia
3247,distribut
3248,voyag
3249,Sabellida
3250,miscellan
3251,cropsproduct
3252,crash
3253,most
3254,Depth
3255,HYDROLOG
3256,plan
3257,moss
3258,watt
3259,spatial-data
3260,Sediment
3261,solicitor
3262,l'Observ
3263,weddel
3264,charg
3265,POLAR
3266,capitaneu
3267,Chlorophyta
3268,compressor
3269,Egypt
3270,AQUAT
3271,landsat
3272,LGA
3273,cover
3274,MOISTU
3275,salari
3276,Forc
3277,FRMAE
3278,Cost
3279,tongu
3280,TfNSW
3281,Robinson
3282,tectonics-
3283,Cloud
3284,MAGNESIUM
3285,sector
3286,rtd
3287,commerc
3288,humid
3289,jurisdict
3290,Patent
3291,scalibregnida
3292,Malasia
3293,JP
3294,Dispers
3295,Profil
3296,PALAEOCLIM
3297,distanc
3298,darlingbasin
3299,Hill
3300,freight
3301,VISIBL
3302,VISIBl
3303,Turbid
3304,Experi
3305,fine
3306,CHANG
3307,heliopora
3308,abund
3309,impact
3310,cell
3311,northern
3312,equiti
3313,Acacia
3314,morum
3315,scooter
3316,pilat
3317,technic
3318,ALIEN
3319,MONODINIUM
3320,apiculata
3321,epiobiont
3322,libraryhack2011
3323,THICK
3324,localgov
3325,METHOD
3326,Pool
3327,Penguin
3328,boulder
3329,incurs
3330,workforc
3331,AERIAL
3332,ICESAT
3333,king
3334,PERIG
3335,financ
3336,Fledgl
3337,AWRA
3338,barrier
3339,nativ
3340,Expect
3341,theft
3342,worldwaron
3343,Steamer
3344,Nutrient
3345,Alga
3346,legalaid
3347,abar
3348,Connect
3349,condit
3350,ICP-M
3351,ore
3352,breed
3353,synthet
3354,board
3355,steamer
3356,con
3357,IBEA
3358,rainfal
3359,crc
3360,gymnorhiza
3361,statist
3362,doppler
3363,liverwort
3364,emergencymanagementact
3365,COMPON
3366,equestrian
3367,river
3368,rivet
3369,commod
3370,fluoresc
3371,art
3372,playarea
3373,bruguiera
3374,machineri
3375,sex
3376,newsouthwal
3377,Diadinoxanthin
3378,Autom
3379,Clam
3380,crimestatist
3381,INFRASTRUCTUR
3382,sea
3383,tender
3384,portrait
3385,bark
3386,Plasma
3387,contour
3388,atla
3389,Digit
3390,(TOPEX)
3391,Plu
3392,Mangrov
3393,ESIP
3394,FORAG
3395,chart
3396,particip
3397,GEOGRAPH
3398,Exot
3399,2002-03
3400,Behaviour
3401,cartograph
3402,Sagitta
3403,Part
3404,VIDEO
3405,plywood
3406,COASTAL
3407,Freedom
3408,3d
3409,propoganda
3410,acidif
3411,gener
3412,meal
3413,atra
3414,King
3415,korea
3416,ameri
3417,numer
3418,AFRICA
3419,quarri
3420,Manual
3421,Accommod
3422,aircraft
3423,emergencymark
3424,African
3425,Purpos
3426,DDE
3427,popul
3428,AND
3429,potato
3430,Stabl
3431,antabif
3432,superannu
3433,COLONI
3434,Fish
3435,Hard
3436,oversea
3437,ANI
3438,HYDROSPHER
3439,macquari
3440,sitc
3441,landform
3442,Coastal
3443,Domiciliari
3444,Copson
3445,Apprentic
3446,geopotenti
3447,mean
3448,RESPIR
3449,ZEALAND
3450,CFC-12_FLAG_W
3451,dm
3452,FLORA
3453,Chemic
3454,Compar
3455,point
3456,loan
3457,makingadiffer
3458,harbour
3459,fix
3460,strategi
3461,sharpsaf
3462,DIATOM
3463,METER
3464,drainag
3465,vessel
3466,TMI
3467,pH
3468,FLi
3469,War
3470,stratigraphi
3471,turnov
3472,lender
3473,Play
3474,antarcticu
3475,casualti
3476,REGIM
3477,help
3478,territori
3479,Dissolv
3480,inorgan
3481,pc
3482,bistat
3483,Antarct
3484,Plan
3485,planning-appl
3486,1997-98
3487,monthli
3488,orthophotograph
3489,classification-
3490,po
3491,Card
3492,Care
3493,Orbiniida
3494,Commonwealth
3495,firn
3496,flight
3497,mesospher
3498,molluscs-
3499,HOLOCEN
3500,Servant
3501,imag
3502,Aborigin
3503,COVER
3504,Lissoclinum
3505,fund
3506,FRAME
3507,Saudi
3508,demand
3509,SALIN
3510,Cnidarian
3511,morphometr
3512,logger
3513,Violaxanthin
3514,Feed
3515,Dioxid
3516,Classif
3517,06
3518,(seaweeds)
3519,chaldaeu
3520,Flood
3521,solid
3522,decapod
3523,OH(6-2)
3524,Trawl
3525,budget
3526,durat
3527,peristernia
3528,INDIAN
3529,taxi
3530,gullyeros
3531,meteorolog
3532,halosarcia
3533,Benthic
3534,legalassist
3535,Market
3536,pack
3537,swim
3538,HNAN
3539,readi
3540,Orphan
3541,Ruin
3542,ceram
3543,longitudin
3544,Delay
3545,Citi
3546,SILCAT_FLAG_W
3547,spong
3548,fledgl
3549,Babi
3550,quadrat
3551,Logger
3552,BACTERI
3553,streetbin
3554,Strategi
3555,ctd
3556,decor
3557,grant
3558,Melbourn
3559,Nematocera
3560,salini
3561,Nation
3562,terrai
3563,Seed
3564,shire
3565,pharmaceut
3566,basta
3567,"Conductivity,"
3568,Tidal
3569,yoga
3570,G3M
3571,cytometri
3572,ANALYZ
3573,glutaraldehyd
3574,optic
3575,inlandwat
3576,barometr
3577,overweight
3578,anthozoan
3579,inflat
3580,SEAWIF
3581,Arabia
3582,temporari
3583,fatti
3584,CONDUCT
3585,Insur
3586,2011-12
3587,Energi
3588,todarod
3589,DISTRIBUT
3590,Cantharu
3591,PLANT
3592,particul
3593,opencouncildata-toilets-1.1
3594,SPECI
3595,historicbuild
3596,dimensions-
3597,Qualiti
3598,Permeabl
3599,inquest
3600,MOULT
3601,person
3602,Rate
3603,chees
3604,waterandirrig
3605,elev
3606,ASG
3607,opendata
3608,grid
3609,niskin
3610,Staff
3611,spend
3612,Satellite-1
3613,feldmark
3614,abiot
3615,ANIM
3616,FRESHWAT
3617,nassariida
3618,interactions-
3619,miniatu
3620,ALTITUD
3621,Territori
3622,CCL4
3623,INORGAN
3624,aquacultur
3625,angiosperm
3626,GREY-HEAD
3627,seamap-
3628,Playground
3629,Statement
3630,Internet
3631,GRASSLAND
3632,bivalv
3633,moneymarketcorpor
3634,continent
3635,timber
3636,wage
3637,PHOTOGRAPH
3638,cut
3639,Band
3640,Migrat
3641,PID
3642,Anthozoa
3643,BIRD
3644,plateau
3645,sydney
3646,bollard
3647,Front
3648,METEOROLOG
3649,hydrosphere-
3650,cemeteri
3651,denison
3652,Octopu
3653,IBDV
3654,bin
3655,bio
3656,complaint
3657,australia
3658,march
3659,frame
3660,Veget
3661,pomacentru
3662,Unemploy
3663,upark
3664,dipteran
3665,Air
3666,judgement
3667,GROWTH
3668,WMO
3669,YEAR
3670,XY
3671,England
3672,bushfir
3673,characterist
3674,educatio
3675,Or
3676,2004-05
3677,Pakistan
3678,leisur
3679,Wharf
3680,shared-path
3681,CHRYSOLOPHU
3682,OF
3683,signal
3684,Phytoplankton
3685,Continu
3686,PAGODROMA
3687,flux
3688,spectrom
3689,COST
3690,Bank
3691,restack
3692,Stoichacti
3693,cruis
3694,Coloni
3695,stormwat
3696,Zebrasoma
3697,Type
3698,watersurfac
3699,BIOREMEDI
3700,Gulf
3701,sewn
3702,omaria
3703,sedigraph
3704,pipelin
3705,Economi
3706,metabolit
3707,ii-
3708,litter
3709,Seeker
3710,sampl
3711,DEM
3712,TONGU
3713,Input
3714,battalion
3715,Subsampl
3716,records-
3717,econonmi
3718,monoxid
3719,NITROG
3720,scale
3721,broadband
3722,laser
3723,NO3
3724,AMD
3725,per
3726,foreign
3727,senior
3728,mathemat
3729,commerci
3730,veterinari
3731,marco_air
3732,revolv
3733,machin
3734,aadc
3735,respiratori
3736,patient
3737,Umitaka
3738,Landsat
3739,bo
3740,weir
3741,historicplac
3742,OCEAN
3743,bu
3744,BEAR
3745,Incom
3746,NITRAT
3747,tidal
3748,Mannum
3749,egovern
3750,by
3751,mortgag
3752,NDIR
3753,firstfleet
3754,juvenil
3755,Distanc
3756,Earthworm
3757,Attend
3758,Grammiti
3759,hydrocotyl
3760,materi
3761,POINT
3762,DEFENC
3763,Event
3764,ocd-customer-service-centres-0.1
3765,disclosur
3766,BoM
3767,trainlink
3768,INVAS
3769,gamma
3770,charl
3771,predat
3772,Stilbocarpa
3773,criminolog
3774,UROPOD
3775,VEGET
3776,graviti
3777,Otolith
3778,RINS
3779,irrig
3780,ACT
3781,NEW
3782,NET
3783,announc
3784,OPEN
3785,nsw
3786,Hut
3787,microsatellit
3788,institut
3789,cabl
3790,BOTANi
3791,PRECI
3792,echoviewr
3793,agricultur
3794,Concess
3795,long
3796,custom
3797,Cycl
3798,asteroid
3799,oyster
3800,Hydrograph
3801,EARTH
3802,EAST
3803,TCARBN_FLAG_W
3804,Section
3805,spat
3806,FELDMARK
3807,bacter
3808,Ianthella
3809,Countrysid
3810,PNAN
3811,poster
3812,potassium
3813,Comast
3814,SOP
3815,Fli
3816,cloth
3817,cloud
3818,Fluoresc
3819,strombidium
3820,reef
3821,atom
3822,childcare-centr
3823,line
3824,talli
3825,conductivity-temperature-depth
3826,PRINCESS
3827,penguin
3828,Suppli
3829,patriot
3830,phyto
3831,CAROTENOID
3832,spectroscopi
3833,emergencymanagementqld
3834,Lethrinid
3835,uv
3836,Africa
3837,transmitt
3838,Murray
3839,par
3840,Phyto-chem
3841,echinoid
3842,vermetida
3843,obis-
3844,BEACH
3845,cit
3846,Expenditur
3847,Outdoor
3848,preenoil
3849,Count
3850,groundwat
3851,camp
3852,Absorpt
3853,fertilis
3854,Traine
3855,Ocea
3856,flow
3857,utilis
3858,Merulina
3859,Ice
3860,arenatu
3861,landfo
3862,INTERN
3863,Asteroid
3864,gravitationa
3865,Locatio
3866,Cynometra
3867,Laser
3868,cafe
3869,yearbook
3870,Net
3871,Ta
3872,Polar
3873,LIMNOLOG
3874,geodesi
3875,Barrier
3876,meteorology.atmospher
3877,Aquat
3878,realest
3879,cycleway
3880,exud
3881,These
3882,BTLNBR
3883,exaristata
3884,librari
3885,psisurvey
3886,Enrol
3887,dem-
3888,AA
3889,Mapper
3890,microwav
3891,cellar
3892,AD
3893,lend
3894,MICROB
3895,Flux
3896,insect
3897,Derwent
3898,AW
3899,domestictravel
3900,CRUIS
3901,Melaleuca
3902,Subscrib
3903,longitud
3904,shrub
3905,casey
3906,Mangal
3907,land
3908,Montia
3909,electromagnet
3910,blend
3911,age
3912,sounder
3913,Casualti
3914,Migrant
3915,NOTE
3916,discrimin
3917,depth
3918,Geo-Spati
3919,Turner
3920,Establish
3921,tube
3922,Maldanida
3923,Macroalga
3924,code
3925,edg
3926,SMMR
3927,gp
3928,Calliacti
3929,Doubl
3930,phenom
3931,coeffici
3932,landscap
3933,ga
3934,Densiti
3935,golf
3936,CPR
3937,cognit
3938,gi
3939,picturearch
3940,stilbocarpa
3941,privat
3942,procur
3943,gold
3944,Parent
3945,caml-
3946,POTASSIUM
3947,osteoporosi
3948,young
3949,ENGIN
3950,MARIN
3951,spectromet
3952,moor
3953,toc-
3954,aris
3955,climateandweath
3956,publicservic
3957,Holothuroidea
3958,SEDIMENT
3959,Longitud
3960,openpsi
3961,Moderate-Resolut
3962,Foreshor
3963,street
3964,garden
3965,Organ
3966,SKUA
3967,Region
3968,Gravimet
3969,cctv
3970,AVIAN
3971,andersoni
3972,wave
3973,electron
3974,volum
3975,millepora
3976,Chick
3977,microscop
3978,IPGOD
3979,CCL4_FLAG_W
3980,ROBINSON
3981,militaryhistori
3982,evapor
3983,pnan
3984,planetari
3985,fur
3986,ANZSCO
3987,Boer
3988,geograph
3989,WATER
3990,sanctuari
3991,ANTARCT
3992,rubusidaeu
3993,hemispher
3994,car
3995,TOPEX/POSEIDON
3996,Partner
3997,CFC-11
3998,Attract
3999,Select
4000,trv
4001,vehicl
4002,TRAVERS
4003,smaller
4004,L'ASTRO
4005,picket
4006,Commun
4007,natur
4008,trawl
4009,rdna
4010,crop
4011,emergencymanagementwa
4012,SACCF
4013,State
4014,Camera
4015,video
4016,mollusks-
4017,SEAL
4018,Tropic
4019,vitulinu
4020,acid
4021,emergencymanagementnt
4022,3D
4023,childcar
4024,index
4025,crystallorophia
4026,ARSEN
4027,portjackson
4028,compar
4029,alga
4030,Cytomet
4031,Sensor
4032,hydrogeolog
4033,access
4034,vestfold
4035,Grid
4036,RAUER
4037,Reef
4038,ASKENASIA
4039,Scan
4040,FISH
4041,bird
4042,SAPOL
4043,oaic
4044,smaragdula
4045,Fevr
4046,SHELF
4047,exoticflora
4048,AMPHIPOD
4049,BIOGEOGRAPH
4050,ARCTIC
4051,IPTV
4052,bodi
4053,Crustacean
4054,Apodid
4055,diatom
4056,firstworldwar
4057,life-ev
4058,hobart
4059,tenur
4060,vertic
4061,METHANSULPHON
4062,PRECIPIT
4063,residenti
4064,ALKALI_FLAG_W
4065,orthophoto
4066,Stream
4067,moroteuthi
4068,Commiss
4069,larger
4070,technolog
4071,DESSIC
4072,Alien
4073,ZOOPLANKTON
4074,tdx
4075,survey
4076,naturalis
4077,3-
4078,Whyalla
4079,Echinoderm
4080,chang
4081,chiton
4082,hyoti
4083,ANTARCTICI
4084,POPUL
4085,Mountain
4086,Pygosc
4087,Safeti
4088,comanthipinna
4089,danger
4090,Titl
4091,Rock
4092,Trademark
4093,calcium
4094,Construct
4095,Chamberlain
4096,derasa
4097,FA
4098,api
4099,SWIVEL
4100,Freight
4101,motor
4102,FISHER
4103,oval
4104,19'-butanoyloxyfucoxanthin
4105,ACID
4106,gateway
4107,bradman
4108,lime
4109,cha
4110,use
4111,fee
4112,SEPIOTEUTHI
4113,ASPA
4114,Hub
4115,commun
4116,live
4117,chl
4118,ined
4119,VIRIOPLANKTON
4120,websit
4121,HEARD
4122,camera
4123,FOR
4124,BLACK-BROW
4125,crab
4126,Media
4127,toy
4128,Transmiss
4129,Brokn
4130,Aranea
4131,lsia
4132,Porit
4133,Land
4134,silicat
4135,iip
4136,WEIGHT
4137,comparison
4138,SOLID
4139,Plain
4140,BROW
4141,theodolit
4142,benchmark
4143,SITE
4144,polychaet
4145,chariti
4146,Oceanographi
4147,trail
4148,train
4149,rubbish
4150,emergencymanagementn
4151,CIRCUL
4152,gymnosperm
4153,olymp
4154,Photographi
4155,blechnum
4156,2006-07
4157,PHOTOGRAMMETRi
4158,Framn
4159,account
4160,darwin
4161,Curculionida
4162,Weight
4163,ceamarc
4164,tunnel
4165,Skira
4166,ride
4167,preci
4168,ice-
4169,zircon
4170,MARU
4171,nebulosu
4172,Video
4173,socioeconom
4174,drill
4175,of
4176,waterbodi
4177,Disadvantag
4178,ALT
4179,gastropod
4180,milk
4181,Librari
4182,employe
4183,Salinity/Dens
4184,tap
4185,cardiovascular
4186,Interact
4187,WEB
4188,Polici
4189,SOIL
4190,TOM
4191,tax
4192,high
4193,aihw
4194,pregnanc
4195,tag
4196,hub
4197,GIPA
4198,OCEAN/LAK
4199,lecanora
4200,sepioteuthi
4201,Australian
4202,tuberosa
4203,crimin
4204,rarebook
4205,sir
4206,surfac
4207,GIPAA
4208,hyacinthu
4209,sit
4210,Numer
4211,GLACIERS/IC
4212,TE
4213,georg
4214,delay
4215,gymnorrhiza
4216,snowcov
4217,training.gov.au
4218,forest
4219,dissolv
4220,TIDAL
4221,Whale
4222,probatoir
4223,Payment
4224,crassula
4225,Juvenil
4226,Larger
4227,Beachport
4228,Bruguiera
4229,farm
4230,OBIS/SCAR-MARBIN
4231,act
4232,Technolog
4233,glacialoid
4234,ABN
4235,PROJECT
4236,INDIGEN
4237,ABR
4238,Emerg
4239,hydrolog
4240,litteratu
4241,Allow
4242,share
4243,topograph
4244,npw
4245,philosophi
4246,physic
4247,Usual
4248,villag
4249,alloc
4250,onshor
4251,Chama
4252,OXYGEN
4253,Microbiota
4254,conduc
4255,counter
4256,allom
4257,region-
4258,Dataset
4259,issu
4260,Weather
4261,TOPOG
4262,allow
4263,takeaway
4264,Natur
4265,monocot
4266,Y2
4267,Noosa
4268,furnish
4269,Track
4270,adjust
4271,biogeoc
4272,Awar
4273,ECOSYSTEM
4274,move
4275,Smith
4276,meter
4277,ISOPOD
4278,DIFFUS
4279,gender
4280,graffei
4281,EGG
4282,Bird
4283,glenelg
4284,CELL
4285,ISOTOP
4286,Right
4287,EASTERN
4288,Shelf
4289,Cove
4290,PHOTOSYNTHET
4291,kindergarten
4292,Suburb
4293,Microbi
4294,infrastructur
4295,RAP
4296,LIVERWORT
4297,FRONT
4298,holiday
4299,COLONi
4300,pixel
4301,Siganu
4302,Nearshor
4303,factor
4304,nrsdar
4305,pure
4306,Solid
4307,dam
4308,Bathymetry/Seafloor
4309,Regolith
4310,strateg
4311,Macquari
4312,nationalbroadbandnetwork
4313,Social
4314,bar
4315,nodicostata
4316,MOSSB
4317,investor
4318,day
4319,diabet
4320,LEPTONYCHOT
4321,gigateu
4322,Artefact
4323,hypertens
4324,CLOACAL
4325,Selectio
4326,chronic
4327,tram
4328,cider
4329,pathway
4330,angiosperms-flow
4331,weather
4332,Uncinia
4333,nfp
4334,IMAG
4335,Serpulid
4336,librarii
4337,conida
4338,ROSS
4339,commonwealth
4340,societi
4341,faec
4342,FUR
4343,Network
4344,speciat
4345,Seal
4346,Questionnair
4347,community-centr
4348,STF
4349,sandi
4350,Princ
4351,mollusc
4352,backscatt
4353,robberi
4354,estuari
4355,Spatial
4356,AMD/AU
4357,SITC
4358,occupi
4359,special
4360,ALTIMET
4361,variabl
4362,rfc
4363,greenslad
4364,continent-
4365,IRC748
4366,singapor
4367,CEO
4368,jobsatisfact
4369,defend
4370,FLOW
4371,defenc
4372,season
4373,discharg
4374,hexachlorobenzen
4375,ASMA
4376,BACTERIOPLANKTON
4377,China
4378,nationalandstatelibrariesaustralasia
4379,rel
4380,aged-servic
4381,Invas
4382,Tasmania
4383,L'ASTROLAB
4384,CASTNO
4385,red
4386,THIN
4387,experiment
4388,australianhistori
4389,zeiss
4390,healthcaresystem
4391,gaug
4392,Acanthast
4393,hazard
4394,AZIMUTH
4395,invas
4396,transmiss
4397,organ
4398,geelohg
4399,complianc
4400,hplc
4401,aps
4402,Point
4403,timet
4404,legalpractition
4405,dumont
4406,area
4407,elector
4408,length
4409,enforc
4410,transfer
4411,Hierarchi
4412,Agricultur
4413,retail
4414,engineering-
4415,south
4416,softwar
4417,GONAD
4418,AMMONIA
4419,Locat
4420,tramway
4421,airborn
4422,internationaltrad
4423,wace
4424,kerbsid
4425,qualiti
4426,echo
4427,CHAR
4428,Program
4429,ERS-2
4430,hplc-
4431,NITROGEN
4432,footpath
4433,owner
4434,GROUP
4435,Local
4436,Galapago
4437,onlin
4438,ndir
4439,North
4440,SWAB
4441,uva
4442,licens
4443,CHEMISTRi
4444,wharf
4445,system
4446,Coast
4447,attach
4448,attack
4449,VESTFOLD
4450,expenditur
4451,LANDFORM
4452,DGT
4453,privaci
4454,ASK
4455,termin
4456,licenc
4457,nut
4458,Preschool
4459,interestr
4460,Lincoln
4461,localgovernemnt
4462,Trainlin
4463,wavelength
4464,shelf
4465,emergencymanagementta
4466,shallow
4467,Qualif
4468,VELOCI
4469,codeofconduct
4470,geochronolog
4471,Peristernia
4472,Xenia
4473,CONTIN
4474,photoperiod
4475,Circul
4476,ARCHAEAN
4477,Aplysia
4478,PURPUREU
4479,echoview
4480,CONVER
4481,steel
4482,photograph
4483,Amphipod
4484,Epidemiolog
4485,PROFIL
4486,TECTON
4487,BRYUM
4488,lion
4489,structur
4490,charact
4491,ophiuroid
4492,pam-
4493,Spong
4494,sens
4495,Anchovies/H
4496,light
4497,Oval
4498,psycholog
4499,greater
4500,result
4501,AAD
4502,chaetopterida
4503,gccsa
4504,SIDE-SCAN
4505,engag
4506,Spectral/Engin
4507,partnership
4508,phytoplankton
4509,roadsafeti
4510,archaean
4511,GROWTH/MELT
4512,MASS
4513,BLACK
4514,immigr
4515,reserv
4516,ventil
4517,SEAWAT
4518,One
4519,border
4520,SPOT-2
4521,Biogeographi
4522,Oil
4523,zoolog
4524,waterwis
4525,rout
4526,CALL
4527,CHLOROP
4528,MIDWAT
4529,mix
4530,scree
4531,GRIMMIA
4532,analog
4533,SNOWCOV
4534,Aegicera
4535,ILLEG
4536,Topograph
4537,Ticket
4538,eburneu
4539,Telemedicin
4540,brisbanecitycouncil
4541,flavidu
4542,radioact
4543,optics-
4544,Piri
4545,preliminari
4546,ATMOSPHERIC/O
4547,toc
4548,TRYPOT
4549,Radiat
4550,HOLM
4551,Wheel
4552,DIET
4553,CHICK
4554,aborigin
4555,Sens
4556,Rural
4557,2013-14
4558,transcript
4559,payment
4560,2011
4561,Rhizophora
4562,LINHOF
4563,retent
4564,pyramimona
4565,spatialdata
4566,refract
4567,Broadcast
4568,Metridia
4569,detritu
4570,FLOAT
4571,request
4572,PLIOCEN
4573,Flotsam
4574,pipe
4575,Growth
4576,Export
4577,Immigr
4578,australia-
4579,syring
4580,Earth
4581,digitalhub
4582,SERUM
4583,Poa
4584,mckellar
4585,nutrit
4586,marbin
4587,Paleo
4588,Park
4589,fertil
4590,Opendata
4591,Budget
4592,ELIZABETH
4593,polystichum
4594,parviflora
4595,portfolio
4596,PHOTOGRAPHi
4597,governmentarch
4598,Public
4599,staff
4600,maldanida
4601,nsla
4602,MATUR
4603,locat
4604,JSA
4605,denatur
4606,GUST
4607,ispol
4608,MACQUARI
4609,manufactur
4610,arthurdendyu
4611,concentr
4612,fuel
4613,sulfur
4614,EXPERI
4615,local
4616,TODAROD
4617,DIMENS
4618,SALINITY/DENS
4619,UV-B
4620,icesat
4621,wellb
4622,Regul
4623,residential-car
4624,Wheelchair
4625,Turbinida
4626,passeng
4627,Econom
4628,NGER
4629,Coal
4630,NH4
4631,FISHERI
4632,antarct
4633,LANDSCA
4634,aquif
4635,australiensi
4636,QUARRi
4637,photographi
4638,River
4639,GPR
4640,2010-11
4641,Tauwitcher
4642,waypoint
4643,SALNTi
4644,qu
4645,MATE
4646,tobacco
4647,be
4648,gust
4649,Move
4650,hole
4651,Drupella
4652,Pressur
4653,Abroad
4654,ISLAND
4655,OFTA
4656,aem
4657,sediment
4658,Neighbourhood
4659,widow
4660,framn
4661,USE/LAND
4662,arsen
4663,nitrogen
4664,ANTARCTICU
4665,Area
4666,LIGHT
4667,Bechervais
4668,knowledg
4669,Regist
4670,DIRECT
4671,ANTARCTICA
4672,emergencymanagementsa
4673,Festuca
4674,FATTi
4675,Orthophotograph
4676,waterqu
4677,geographicregion
4678,Ph
4679,coml-
4680,Microcalanu
4681,particl
4682,DINOFALGEL
4683,QLD
4684,geochemistri
4685,wa
4686,ph
4687,tecton
4688,Aurora
4689,graticul
4690,MULTIST
4691,PIGMENT
4692,state
4693,PF
4694,FILM
4695,Govern
4696,crude
4697,chemic
4698,PH
4699,PORTABL
4700,PO
4701,Popul
4702,centr
4703,ice-cloud
4704,parasitolog
4705,anzsco
4706,bed
4707,INCURS
4708,amen
4709,Sri
4710,captur
4711,RAD
4712,taichi
4713,Singapor
4714,job
4715,Animals/Vertebr
4716,queensland
4717,Close
4718,disput
4719,dress
4720,wh
4721,ACC
4722,UNIT
4723,addit
4724,Dimens
4725,secchi
4726,scsa
4727,POLARI
4728,sibex
4729,TRACE
4730,glycerida
4731,ROCKS/MINERALS/CRYST
4732,Microalga
4733,Strait
4734,equal
4735,drug
4736,pothol
4737,grain
4738,Agrosti
4739,plankton
4740,Riverland
4741,STRA
4742,Lepidopteran
4743,sexangula
4744,Precipit
4745,PLATEAU
4746,comment
4747,customer-service-centres-0.1
4748,co
4749,Log
4750,cordial
4751,turbid
4752,Frascati
4753,Boundari
4754,Pringlea
4755,arriv
4756,walk
4757,Refer
4758,Low
4759,news
4760,Squirt
4761,COASTLIN
4762,Favit
4763,citizenship
4764,SLOPE
4765,UMITAKA
4766,tiliaceu
4767,Anthozoans/Octocor
4768,biospher
4769,swimmer
4770,RECEIV
4771,cinema
4772,smallgood
4773,DEPTH/THICK
4774,health-car
4775,compon
4776,clathrata
4777,fisheri
4778,electr
4779,pygmaeu
4780,marsh
4781,colub
4782,bbq
4783,Astrolab
4784,Flora
4785,Resid
4786,learninganddevelop
4787,OBI
4788,DISSOVELD
4789,VELOC
4790,lga
4791,linhof
4792,Lake
4793,STATE
4794,internod
4795,macrura
4796,mail
4797,Oyster
4798,furnitur
4799,educ
4800,coastlin
4801,CHLAMYDOMONA
4802,input
4803,Stichopu
4804,wood
4805,australasicu
4806,Depart
4807,Ana
4808,sar-
4809,Erod
4810,RH
4811,runway
4812,demolit
4813,Number
4814,GRAVITi
4815,Signific
4816,lichen
4817,PSC
4818,THYMIDIN
4819,NUTRIENT
4820,chlorophyllid
4821,observ
4822,rba
4823,SULPHAT
4824,layer
4825,(AM-1)
4826,Recreat
4827,gammaproteobacteria
4828,SAcommun
4829,viru
4830,FLEDG
4831,cultur
4832,ISPOL
4833,site
4834,drillhol
4835,Rhincalanu
4836,CENOZO
4837,archiv
4838,Trajectori
4839,Fuel
4840,incom
4841,SCAR
4842,Beach
4843,Halimeda
4844,agrosti
4845,ecosystems-
4846,Triterpin
4847,Product
4848,VERTIC
4849,Garden
4850,roaddeath
4851,SOI
4852,Poster
4853,cross
4854,INDIC
4855,member
4856,ocd-garbag
4857,Steroid
4858,Pendant
4859,Decapod
4860,outbreak
4861,start
4862,Speed
4863,Visibl
4864,forestri
4865,Seismolog
4866,SCAN
4867,wyndham
4868,Ridg
4869,absorb
4870,Coral
4871,drink
4872,INTERMITT
4873,Fungi
4874,ion
4875,Anim
4876,Medicar
4877,chlorop
4878,student
4879,countri
4880,Calanu
4881,publicadministr
4882,whale
4883,literaci
4884,respons
4885,NISKIN
4886,mosaic
4887,cosmet
4888,ortho-rectifi
4889,gutter
4890,off
4891,sheetmus
4892,ARW
4893,philippin
4894,well
4895,Arriv
4896,herbarium
4897,roxbi
4898,Tide
4899,RJCP
4900,permeabl
4901,Thermistor
4902,polym
4903,english
4904,Welch
4905,Skill
4906,Total
4907,Gener
4908,usual
4909,load
4910,hnan
4911,greengroc
4912,Parkland
4913,BN
4914,BO
4915,TIP
4916,DEAD
4917,BIOGEOC
4918,Access
4919,TEMPERATUR
4920,Isotop
4921,OBIS-SEAMAP
4922,Biodegrad
4923,whyalla
4924,radarsat
4925,MICROSCAL
4926,skill
4927,lauren
4928,platform
4929,prey
4930,Alloxanthin
4931,sulphat
4932,web
4933,geothemat
4934,ATMOSPHER
4935,SODIUM
4936,Gastropod
4937,Overweight
4938,lake
4939,Animals/Invertebr
4940,Victoria
4941,Bu
4942,SUMMIT
4943,Geolog
4944,HUMAN
4945,densiti
4946,SCINTIL
4947,Compani
4948,ski
4949,By
4950,smart
4951,adi
4952,Heritiera
4953,Particul
4954,Administr
4955,Ecosystem
4956,legaladvic
4957,Denison
4958,Drug
4959,Collect
4960,Ophiuroid
4961,Graviti
4962,Gastropoda
4963,Penetr
4964,Chiton
4965,associ
4966,blackballoon
4967,Offenc
4968,Latitud
4969,mainten
4970,Law
4971,resid
4972,B.
4973,resin
4974,RESPIROMETERi
4975,CAIRN
4976,LENGTH
4977,Evolutionari
4978,brokn
4979,chick
4980,soft
4981,PREDAT
4982,Sub
4983,habitat
4984,polar
4985,Databas
4986,twitter
4987,suppli
4988,GLACIOLOG
4989,GIANT
4990,call
4991,nutrien
4992,BOUNDARIES-Cultur
4993,EEO
4994,growth
4995,export
4996,Mud
4997,ARGO
4998,Underground
4999,home
5000,shipbuild
5001,TOC
5002,geodynam
5003,MACR
5004,KING
5005,leaf
5006,feder
5007,lead
5008,miner
5009,bopbec
5010,employeeengag
5011,Bulk
5012,leas
5013,estim
5014,Morain
5015,esa
5016,publiclibrari
5017,horticultureproduct
5018,noosa
5019,STAGE
5020,littter
5021,nativeflora
5022,investig
5023,lipid
5024,PHOTOSYNTHESI
5025,apsvalu
5026,mantl
5027,journal
5028,Chemistri
5029,ACTIV
5030,collector
5031,obes
5032,cryst
5033,parasit
5034,thymidin
5035,watercraft
5036,pasta
5037,Loken
5038,monetari
5039,LONGITUD
5040,stage
5041,Toilet
5042,astrolab
5043,beachmark
5044,actual
5045,Mental
5046,googlefusiont
5047,justic
5048,biscuit
5049,UV
5050,TERRESTRI
5051,genet
5052,UM
5053,photogrammetrist
5054,Linkia
5055,rabbit
5056,mdba.wat
5057,Peopl
5058,hottop
5059,Portrait
5060,BARREL
5061,granatum
5062,disabl
5063,magistr
5064,Adelaid
5065,artefact
5066,Shallow
5067,mesodinium
5068,cfl
5069,(Scaridae)
5070,chrysostomu
5071,Act
5072,automat
5073,dataset
5074,assess
5075,surfacewat
5076,Labour
5077,TCARBN
5078,rectifi
5079,Dwell
5080,MODEL
5081,Feder
5082,pseudotriquetrum
5083,dicot
5084,CHEMIC
5085,bioremedi
5086,geelong
5087,SEA-LEVEL
5088,"Temperature,"
5089,pictur
5090,geographi
5091,Financi
5092,museum
5093,themat
5094,rotat
5095,rDNA
5096,Demographi
5097,ADENOVIRU
5098,Train
5099,Moneysmart
5100,Child
5101,pictum
5102,vap
5103,reconstitut
5104,ruralwatercorpor
5105,Capitellida
5106,function
5107,DIMETHYLSULPHID
5108,cricket
5109,Diploastrea
5110,north
5111,ireland
5112,Softwar
5113,stateoftheservic
5114,subscrib
5115,Well
5116,Contract
5117,jobact
5118,Queensland
5119,hi
5120,Marriag
5121,Euapta
5122,arboretum
5123,threaten
5124,Yongala
5125,social-h
5126,Avicennia
5127,parvicirru
5128,Polychaeta
5129,he
5130,count
5131,Wale
5132,simili
5133,Brugiera
5134,Gold
5135,crustaceans-
5136,veget
5137,ecosystem
5138,municip
5139,HETEROTROPH
5140,(MAA)
5141,pour
5142,record
5143,Topographi
5144,limit
5145,digital-elevation-data
5146,monument
5147,aplysia
5148,cardiida
5149,VoIP
5150,veneer
5151,Hydrocarbon
5152,PEAK
5153,what
5154,block
5155,Bathroom
5156,Massif
5157,dinofalgel
5158,pin
5159,Socialsecur
5160,AURORA
5161,COUNTER
5162,Evolut
5163,SYSTEM
5164,Instrument
5165,boardwalk
5166,Fulmaru
5167,Fjord
5168,1999-00
5169,variegatu
5170,regul
5171,helmintholog
5172,Darwin
5173,benthic
5174,BACTERIA
5175,facilti
5176,probabl
5177,Function
5178,Saponin
5179,ABSTUDi
5180,Liquid
5181,Imag
5182,THEODOLIT
5183,Genet
5184,Biolog
5185,virtual
5186,open_spac
5187,Marin
5188,fire
5189,Haul
5190,sewer
5191,lookup
5192,FOREST
5193,elegan
5194,baselin
5195,Calcif
5196,DAY
5197,pension
5198,tam
5199,McIntyr
5200,stat
5201,spp.
5202,star
5203,woprkplac
5204,Ace
5205,Spill
5206,SEASON
5207,2001-02
5208,Limit
5209,brisban
5210,INFLUENZA
5211,MOSS
5212,QUADRAT
5213,100k
5214,seismic
5215,gulf
5216,LOCAL
5217,South
5218,Bioregion
5219,extort
5220,catchment
5221,caso-
5222,scientif
5223,ta
5224,reliabl
5225,Site
5226,Geographi
5227,Packag
5228,acanthast
5229,emerg
5230,2009-10
5231,luzula
5232,Crinoidea
5233,radiomet
5234,rural
5235,buoy
5236,Plants)
5237,socialsecur
5238,Atla
5239,ISOT
